\relax 
\catcode`"\active
\catcode`<\active
\catcode`>\active
\@nameuse{es@quoting}
\select@language{spanish}
\@writefile{toc}{\select@language{spanish}}
\@writefile{lof}{\select@language{spanish}}
\@writefile{lot}{\select@language{spanish}}
\@writefile{toc}{\contentsline {section}{\numberline {1}Especificacion}{1}}
\@writefile{toc}{\contentsline {section}{\numberline {2}Implementacion}{2}}
\@writefile{lol}{\contentsline {lstlisting}{MainClean.java}{2}}
\@writefile{toc}{\contentsline {section}{\numberline {3}Correctitud}{5}}
\@writefile{toc}{\contentsline {subsection}{\numberline {3.1}Demostracion de estructuras de control}{6}}
\@writefile{toc}{\contentsline {subsubsection}{\numberline {3.1.1}Correctitud del \textit  {while}}{6}}
\@writefile{toc}{\contentsline {subsubsection}{\numberline {3.1.2}Correctitud del $if$}{8}}
\@writefile{toc}{\contentsline {subsubsection}{\numberline {3.1.3}Conclusion}{8}}
